<svg width="20" height="20" viewBox="0 0 20 20" fill="none" xmlns="http://www.w3.org/2000/svg">
<g clip-path="url(#clip0_1155_6113)">
<path d="M18.9045 14.2747C18.8827 14.2278 18.8624 14.1888 18.8435 14.1576C18.5312 13.5951 17.9345 12.9048 17.0535 12.0863L17.0349 12.0675L17.0256 12.0583L17.0162 12.0489H17.0067C16.6069 11.6678 16.3537 11.4115 16.2477 11.2803C16.0537 11.0304 16.0102 10.7774 16.1163 10.5211C16.1912 10.3274 16.4726 9.91838 16.9597 9.29349C17.216 8.96232 17.419 8.69689 17.5688 8.49692C18.6498 7.05983 19.1185 6.14152 18.9747 5.74161L18.9188 5.64815C18.8813 5.59189 18.7845 5.54042 18.6285 5.49348C18.4721 5.44664 18.2722 5.43889 18.0285 5.47011L15.3295 5.48875C15.2858 5.47326 15.2233 5.47471 15.142 5.49348C15.0607 5.51226 15.0201 5.52168 15.0201 5.52168L14.9731 5.54515L14.9358 5.57335C14.9046 5.59199 14.8702 5.62478 14.8327 5.67166C14.7954 5.71837 14.7642 5.77319 14.7392 5.83565C14.4454 6.59165 14.1113 7.29453 13.7363 7.94428C13.5051 8.33171 13.2928 8.66748 13.0989 8.95178C12.9053 9.23598 12.7428 9.44537 12.6117 9.5796C12.4804 9.71395 12.3619 9.82158 12.2555 9.90289C12.1492 9.98423 12.0681 10.0186 12.012 10.006C11.9557 9.99346 11.9027 9.98098 11.8525 9.96851C11.7651 9.91225 11.6947 9.83573 11.6417 9.7389C11.5885 9.64206 11.5526 9.52018 11.5339 9.37335C11.5153 9.22643 11.5042 9.10005 11.5011 8.9938C11.4982 8.88767 11.4995 8.73756 11.5058 8.5439C11.5123 8.35013 11.5153 8.21902 11.5153 8.15029C11.5153 7.91283 11.5199 7.65512 11.5292 7.37709C11.5386 7.09906 11.5463 6.87877 11.5527 6.71648C11.559 6.55403 11.562 6.38216 11.562 6.20096C11.562 6.01977 11.551 5.87767 11.5292 5.77453C11.5076 5.67153 11.4746 5.57154 11.431 5.47461C11.3872 5.37777 11.3231 5.30287 11.2389 5.24969C11.1546 5.19658 11.0497 5.15443 10.925 5.12311C10.5938 5.04818 10.1721 5.00764 9.65965 5.00133C8.4976 4.98886 7.75093 5.0639 7.41979 5.22635C7.28859 5.29499 7.16986 5.38877 7.0637 5.5074C6.95121 5.6449 6.93552 5.71994 7.01673 5.73229C7.39166 5.78845 7.65708 5.9228 7.8133 6.13521L7.86959 6.24777C7.91338 6.32898 7.9571 6.47276 8.00086 6.6789C8.04455 6.88504 8.07275 7.11308 8.08515 7.36288C8.11634 7.81905 8.11634 8.20954 8.08515 8.53438C8.05387 8.85935 8.02433 9.11233 7.99613 9.29352C7.96794 9.47472 7.92579 9.62155 7.86959 9.73397C7.8133 9.84643 7.77584 9.91517 7.75707 9.94011C7.73832 9.96506 7.7227 9.98079 7.71029 9.98696C7.62908 10.0181 7.54462 10.0339 7.45721 10.0339C7.36966 10.0339 7.26351 9.99014 7.13857 9.90263C7.01367 9.81512 6.88405 9.69491 6.74969 9.54181C6.61534 9.38868 6.46382 9.1747 6.29507 8.89982C6.12644 8.62494 5.95148 8.30007 5.77029 7.92521L5.62038 7.65335C5.52666 7.47845 5.39864 7.2238 5.23619 6.8896C5.07364 6.55528 4.92996 6.23188 4.80506 5.91949C4.75514 5.78828 4.68013 5.6884 4.58018 5.61966L4.53327 5.59146C4.50209 5.56652 4.45203 5.54003 4.38336 5.5118C4.31459 5.4836 4.24283 5.46338 4.1678 5.45094L1.59991 5.46959C1.33751 5.46959 1.15946 5.52903 1.06572 5.64776L1.0282 5.70392C1.00945 5.73521 1 5.78517 1 5.85394C1 5.92267 1.01874 6.00703 1.05626 6.10692C1.43113 6.98795 1.83878 7.83763 2.27923 8.65609C2.71968 9.47456 3.10242 10.1338 3.42723 10.6334C3.7521 11.1333 4.08324 11.6051 4.42065 12.0485C4.75806 12.4922 4.9814 12.7765 5.09068 12.9014C5.20008 13.0265 5.28602 13.1201 5.34849 13.1825L5.58282 13.4074C5.73277 13.5574 5.95296 13.737 6.2435 13.9463C6.5341 14.1557 6.85582 14.3618 7.20882 14.565C7.56189 14.7679 7.97263 14.9335 8.44128 15.0615C8.90985 15.1897 9.36593 15.2412 9.80956 15.2163H10.8873C11.1059 15.1975 11.2715 15.1287 11.3841 15.0101L11.4214 14.9631C11.4465 14.9258 11.4699 14.8679 11.4916 14.7899C11.5135 14.7118 11.5244 14.6258 11.5244 14.5322C11.518 14.2636 11.5385 14.0215 11.5852 13.806C11.6319 13.5905 11.6852 13.4281 11.7447 13.3187C11.8042 13.2094 11.8714 13.1171 11.9461 13.0424C12.021 12.9674 12.0744 12.922 12.1057 12.9064C12.1368 12.8907 12.1617 12.88 12.1804 12.8736C12.3304 12.8236 12.5068 12.872 12.7101 13.019C12.9132 13.1658 13.1037 13.3471 13.2818 13.5626C13.4599 13.7782 13.6739 14.0202 13.9237 14.2888C14.1738 14.5575 14.3924 14.7572 14.5798 14.8886L14.7671 15.0011C14.8922 15.0761 15.0547 15.1449 15.2547 15.2073C15.4543 15.2698 15.6292 15.2854 15.7793 15.2542L18.1784 15.2168C18.4157 15.2168 18.6004 15.1775 18.7313 15.0995C18.8626 15.0214 18.9405 14.9354 18.9657 14.8418C18.9908 14.7481 18.9921 14.6418 18.9704 14.523C18.9482 14.4045 18.9263 14.3216 18.9045 14.2747Z" stroke="#CFCEF9" stroke-width="1.22727"/>
</g>
<defs>
<clipPath id="clip0_1155_6113">
<rect width="20" height="20" fill="white"/>
</clipPath>
</defs>
</svg>
