<svg width="17" height="16" viewBox="0 0 17 16" fill="none" xmlns="http://www.w3.org/2000/svg">
<path fill-rule="evenodd" clip-rule="evenodd" d="M10.8619 1.52858C11.1222 1.26823 11.5443 1.26823 11.8047 1.52858L14.4714 4.19524C14.7317 4.45559 14.7317 4.8777 14.4714 5.13805L11.8047 7.80472C11.5443 8.06507 11.1222 8.06507 10.8619 7.80472C10.6015 7.54437 10.6015 7.12226 10.8619 6.86191L13.0572 4.66665L10.8619 2.47138C10.6015 2.21103 10.6015 1.78892 10.8619 1.52858Z" fill="#05CD99"/>
<path fill-rule="evenodd" clip-rule="evenodd" d="M2.66663 4.66665C2.66663 4.29846 2.9651 3.99998 3.33329 3.99998H14C14.3681 3.99998 14.6666 4.29846 14.6666 4.66665C14.6666 5.03484 14.3681 5.33331 14 5.33331H3.33329C2.9651 5.33331 2.66663 5.03484 2.66663 4.66665Z" fill="#05CD99"/>
<path fill-rule="evenodd" clip-rule="evenodd" d="M6.47136 8.19524C6.73171 8.45559 6.73171 8.8777 6.47136 9.13805L4.2761 11.3333L6.47136 13.5286C6.73171 13.7889 6.73171 14.211 6.47136 14.4714C6.21101 14.7317 5.7889 14.7317 5.52855 14.4714L2.86189 11.8047C2.60154 11.5444 2.60154 11.1223 2.86189 10.8619L5.52855 8.19524C5.7889 7.93489 6.21101 7.93489 6.47136 8.19524Z" fill="#05CD99"/>
<path fill-rule="evenodd" clip-rule="evenodd" d="M2.66663 11.3333C2.66663 10.9651 2.9651 10.6666 3.33329 10.6666H14C14.3681 10.6666 14.6666 10.9651 14.6666 11.3333C14.6666 11.7015 14.3681 12 14 12H3.33329C2.9651 12 2.66663 11.7015 2.66663 11.3333Z" fill="#05CD99"/>
</svg>
